Label,# Samples,Average,Median,90% Line,95% Line,99% Line,Min,Max,Error %,Throughput,KB/sec
HTTP Request,388476,12,3,8,12,365,0,1590,0.00%,1163.4,372.8
TOTAL,388476,12,3,8,12,365,0,1590,0.00%,1163.4,372.8
