Elapsed time,192.168.2.2 Network I/O
14:10:11.0,0.0
14:10:12.0,5838.0
14:10:13.0,13649.0
14:10:14.0,17501.0
14:10:15.0,23952.0
14:10:16.0,30595.0
14:10:17.0,30656.0
14:10:18.0,31127.0
14:10:19.0,30814.0
14:10:20.0,30431.0
14:10:21.0,31905.0
14:10:22.0,28866.0
14:10:23.0,32256.0
14:10:24.0,29791.0
14:10:25.0,31744.0
14:10:26.0,31905.0
14:10:27.0,30895.0
14:10:28.0,31676.0
14:10:29.0,29098.0
14:10:30.0,32309.0
14:10:31.0,29830.0
14:10:32.0,32563.0
14:10:33.0,29846.0
14:10:34.0,31440.0
14:10:35.0,31076.0
14:10:36.0,30396.0
14:10:37.0,30663.0
14:10:38.0,29746.0
14:10:39.0,32935.0
14:10:40.0,28380.0
14:10:41.0,33035.0
14:10:42.0,30327.0
14:10:43.0,32120.0
14:10:44.0,30593.0
14:10:45.0,29569.0
14:10:46.0,32962.0
14:10:47.0,34534.0
14:10:48.0,43368.0
14:10:49.0,47607.0
14:10:50.0,56366.0
14:10:51.0,62012.0
14:10:52.0,60383.0
14:10:53.0,63878.0
14:10:54.0,62420.0
14:10:55.0,66389.0
14:10:56.0,62945.0
14:10:57.0,63131.0
14:10:58.0,61500.0
14:10:59.0,60792.0
14:11:00.0,61698.0
14:11:01.0,59883.0
14:11:02.0,64108.0
14:11:03.0,60442.0
14:11:04.0,61750.0
14:11:05.0,61418.0
14:11:06.0,61618.0
14:11:07.0,60932.0
14:11:08.0,59297.0
14:11:09.0,63992.0
14:11:10.0,58914.0
14:11:11.0,64272.0
14:11:12.0,60266.0
14:11:13.0,62996.0
14:11:14.0,61085.0
14:11:15.0,59014.0
14:11:16.0,64402.0
14:11:17.0,60409.0
14:11:18.0,60811.0
14:11:19.0,61205.0
14:11:20.0,60479.0
14:11:21.0,64022.0
14:11:22.0,64579.0
14:11:23.0,73153.0
14:11:24.0,78597.0
14:11:25.0,86118.0
14:11:26.0,90371.0
14:11:27.0,92944.0
14:11:28.0,95042.0
14:11:29.0,94325.0
14:11:30.0,94351.0
14:11:31.0,87758.0
14:11:32.0,99892.0
14:11:33.0,89586.0
14:11:34.0,95771.0
14:11:35.0,94096.0
14:11:37.0,90963.0
14:11:38.0,98588.0
14:11:39.0,89383.0
14:11:40.0,95998.0
14:11:41.0,89874.0
14:11:42.0,94070.0
14:11:43.0,90597.0
14:11:44.0,93517.0
14:11:45.0,88649.0
14:11:46.0,91433.0
14:11:47.0,94234.0
14:11:48.0,90968.0
14:11:49.0,92438.0
14:11:50.0,92170.0
14:11:51.0,91297.0
14:11:52.0,95263.0
14:11:53.0,88969.0
14:11:54.0,94349.0
14:11:55.0,91160.0
14:11:56.0,90317.0
14:11:57.0,93581.0
14:11:58.0,94560.0
14:11:59.0,108238.0
14:12:00.0,104057.0
14:12:01.0,120712.0
14:12:02.0,117949.0
14:12:03.0,114692.0
14:12:04.0,121851.0
14:12:05.0,123029.0
14:12:06.0,128545.0
14:12:07.0,121488.0
14:12:08.0,126424.0
14:12:09.0,123666.0
14:12:10.0,124024.0
14:12:11.0,122413.0
14:12:12.0,124298.0
14:12:13.0,122975.0
14:12:14.0,122993.0
14:12:15.0,128315.0
14:12:16.0,123331.0
14:12:17.0,127958.0
14:12:18.0,116849.0
14:12:19.0,129796.0
14:12:20.0,123042.0
14:12:21.0,122572.0
14:12:22.0,123665.0
14:12:23.0,120269.0
14:12:24.0,125713.0
14:12:25.0,120971.0
14:12:26.0,122350.0
14:12:27.0,118238.0
14:12:28.0,129825.0
14:12:29.0,118108.0
14:12:30.0,114252.0
14:12:31.0,131600.0
14:12:32.0,114032.0
14:12:33.0,133578.0
14:12:34.0,130305.0
14:12:35.0,138833.0
14:12:36.0,152008.0
14:12:37.0,146412.0
14:12:38.0,150631.0
14:12:39.0,153722.0
14:12:40.0,157192.0
14:12:41.0,150411.0
14:12:42.0,159807.0
14:12:43.0,152993.0
14:12:44.0,149912.0
14:12:45.0,158259.0
14:12:46.0,151793.0
14:12:47.0,156284.0
14:12:48.0,155859.0
14:12:49.0,151065.0
14:12:50.0,154702.0
14:12:51.0,154703.0
14:12:52.0,152857.0
14:12:53.0,152584.0
14:12:54.0,158462.0
14:12:55.0,148981.0
14:12:56.0,151368.0
14:12:57.0,150916.0
14:12:58.0,150829.0
14:12:59.0,160039.0
14:13:00.0,152103.0
14:13:01.0,152597.0
14:13:02.0,146096.0
14:13:03.0,157841.0
14:13:04.0,143576.0
14:13:05.0,157013.0
14:13:06.0,149967.0
14:13:07.0,149641.0
14:13:08.0,162399.0
14:13:09.0,161974.0
14:13:10.0,165990.0
14:13:11.0,175771.0
14:13:12.0,182090.0
14:13:13.0,182525.0
14:13:14.0,181192.0
14:13:15.0,185945.0
14:13:16.0,174042.0
14:13:17.0,187362.0
14:13:18.0,180063.0
14:13:19.0,180389.0
14:13:20.0,186385.0
14:13:21.0,182735.0
14:13:22.0,182264.0
14:13:23.0,178493.0
14:13:24.0,181743.0
14:13:25.0,175020.0
14:13:26.0,180708.0
14:13:27.0,173323.0
14:13:28.0,171684.0
14:13:29.0,172526.0
14:13:30.0,173848.0
14:13:31.0,186510.0
14:13:32.0,176639.0
14:13:33.0,180126.0
14:13:34.0,184539.0
14:13:35.0,182991.0
14:13:36.0,178042.0
14:13:37.0,185592.0
14:13:38.0,182778.0
14:13:39.0,183404.0
14:13:40.0,179741.0
14:13:41.0,183673.0
14:13:42.0,187905.0
14:13:43.0,184816.0
14:13:44.0,195106.0
14:13:45.0,194802.0
14:13:46.0,204658.0
14:13:47.0,202963.0
14:13:48.0,211908.0
14:13:49.0,213647.0
14:13:50.0,210723.0
14:13:51.0,208289.0
14:13:52.0,211028.0
14:13:53.0,209936.0
14:13:54.0,204844.0
14:13:55.0,202353.0
14:13:56.0,183614.0
14:13:57.0,189447.0
14:13:58.0,205473.0
14:13:59.0,205749.0
14:14:00.0,205849.0
14:14:01.0,208500.0
14:14:02.0,199661.0
14:14:03.0,205890.0
14:14:04.0,152675.0
14:14:05.0,171017.0
14:14:06.0,180878.0
14:14:07.0,164927.0
14:14:08.0,205447.0
14:14:09.0,206286.0
14:14:10.0,207582.0
14:14:11.0,205193.0
14:14:12.0,200240.0
14:14:13.0,206680.0
14:14:14.0,208096.0
14:14:15.0,209309.0
14:14:16.0,202989.0
14:14:17.0,196970.0
14:14:18.0,158258.0
14:14:19.0,209087.0
14:14:20.0,157445.0
14:14:21.0,224582.0
14:14:22.0,200855.0
14:14:23.0,228614.0
14:14:24.0,228053.0
14:14:25.0,233968.0
14:14:26.0,207825.0
14:14:27.0,212965.0
14:14:28.0,229381.0
14:14:29.0,224004.0
14:14:30.0,223168.0
14:14:31.0,234672.0
14:14:32.0,229788.0
14:14:33.0,219989.0
14:14:34.0,230583.0
14:14:35.0,227784.0
14:14:36.0,202071.0
14:14:37.0,195054.0
14:14:38.0,172663.0
14:14:39.0,194327.0
14:14:40.0,229980.0
14:14:41.0,213138.0
14:14:42.0,190395.0
14:14:43.0,230354.0
14:14:44.0,226845.0
14:14:45.0,227996.0
14:14:46.0,226693.0
14:14:47.0,234148.0
14:14:48.0,229480.0
14:14:49.0,212522.0
14:14:50.0,223941.0
14:14:51.0,204543.0
14:14:52.0,199665.0
14:14:53.0,206853.0
14:14:54.0,215208.0
14:14:55.0,180488.0
14:14:56.0,185966.0
14:14:57.0,220839.0
14:14:58.0,219961.0
14:14:59.0,215517.0
14:15:00.0,211552.0
14:15:01.0,212221.0
14:15:02.0,207020.0
14:15:03.0,170448.0
14:15:04.0,195500.0
14:15:05.0,177296.0
14:15:06.0,224191.0
14:15:07.0,198595.0
14:15:08.0,220219.0
14:15:09.0,227373.0
14:15:10.0,182389.0
14:15:11.0,211957.0
14:15:12.0,215132.0
14:15:13.0,160900.0
14:15:14.0,164829.0
14:15:15.0,233600.0
14:15:16.0,232140.0
14:15:17.0,226104.0
14:15:18.0,197228.0
14:15:19.0,203540.0
14:15:20.0,199653.0
14:15:21.0,202379.0
14:15:22.0,215960.0
14:15:23.0,200112.0
14:15:24.0,187257.0
14:15:25.0,181818.0
14:15:26.0,153750.0
14:15:27.0,171220.0
14:15:28.0,157410.0
14:15:29.0,183960.0
14:15:30.0,177486.0
14:15:31.0,127632.0
14:15:32.0,180026.0
14:15:33.0,143669.0
14:15:34.0,156748.0
14:15:35.0,155968.0
14:15:36.0,145332.0
14:15:37.0,157029.0
14:15:38.0,155538.0
14:15:39.0,148499.0
14:15:40.0,156169.0
14:15:41.0,151108.0
14:15:42.0,161791.0
14:15:43.0,109776.0
14:15:44.0,108438.0
14:15:45.0,105934.0
14:15:46.0,107599.0
14:15:47.0,110203.0
14:15:48.0,105790.0
14:15:49.0,104179.0
14:15:50.0,109372.0
14:15:51.0,109799.0
14:15:52.0,117383.0
14:15:53.0,70735.0
14:15:54.0,65052.0
14:15:55.0,59833.0
14:15:56.0,61838.0
14:15:57.0,61858.0
14:15:58.0,59902.0
14:15:59.0,64634.0
14:16:00.0,59019.0
14:16:01.0,68299.0
14:16:02.0,67046.0
14:16:03.0,21898.0
14:16:04.0,14952.0
14:16:05.0,16719.0
14:16:06.0,14295.0
14:16:07.0,15780.0
14:16:08.0,16556.0
14:16:09.0,14092.0
14:16:10.0,17032.0
