2015/08/12 19:56:11 INFO  - jmeter.util.JMeterUtils: Setting Locale to en_US 
2015/08/12 19:56:11 INFO  - jmeter.JMeter: Loading user properties from: /usr/local/Cellar/jmeter/2.13/libexec/bin/user.properties 
2015/08/12 19:56:11 INFO  - jmeter.JMeter: Loading system properties from: /usr/local/Cellar/jmeter/2.13/libexec/bin/system.properties 
2015/08/12 19:56:11 INFO  - jmeter.JMeter: Copyright (c) 1998-2015 The Apache Software Foundation 
2015/08/12 19:56:11 INFO  - jmeter.JMeter: Version 2.13 r1665067 
2015/08/12 19:56:11 INFO  - jmeter.JMeter: java.version=1.7.0_75 
2015/08/12 19:56:11 INFO  - jmeter.JMeter: java.vm.name=Java HotSpot(TM) 64-Bit Server VM 
2015/08/12 19:56:11 INFO  - jmeter.JMeter: os.name=Mac OS X 
2015/08/12 19:56:11 INFO  - jmeter.JMeter: os.arch=x86_64 
2015/08/12 19:56:11 INFO  - jmeter.JMeter: os.version=10.10.4 
2015/08/12 19:56:11 INFO  - jmeter.JMeter: file.encoding=UTF-8 
2015/08/12 19:56:11 INFO  - jmeter.JMeter: Default Locale=English (United States) 
2015/08/12 19:56:11 INFO  - jmeter.JMeter: JMeter  Locale=English (United States) 
2015/08/12 19:56:11 INFO  - jmeter.JMeter: JMeterHome=/usr/local/Cellar/jmeter/2.13/libexec 
2015/08/12 19:56:11 INFO  - jmeter.JMeter: user.dir  =/Users/jogara/COMP40550/test_plans/stress_load 
2015/08/12 19:56:11 INFO  - jmeter.JMeter: PWD       =/Users/jogara/COMP40550/test_plans/stress_load 
2015/08/12 19:56:11 INFO  - jmeter.JMeter: IP: 192.168.59.3 Name: Johns-MacBook-Pro.local FullName: 192.168.59.3 
2015/08/12 19:56:11 INFO  - jmeter.services.FileServer: Default base='/Users/jogara/COMP40550/test_plans/stress_load' 
2015/08/12 19:56:11 INFO  - jmeter.services.FileServer: Set new base='/Users/jogara/COMP40550/test_plans/stress_load' 
2015/08/12 19:56:11 INFO  - jmeter.save.SaveService: Testplan (JMX) version: 2.2. Testlog (JTL) version: 2.2 
2015/08/12 19:56:11 INFO  - jmeter.save.SaveService: Using SaveService properties file encoding UTF-8 
2015/08/12 19:56:11 INFO  - jmeter.save.SaveService: Using SaveService properties file version 1656252 
2015/08/12 19:56:11 INFO  - jmeter.save.SaveService: Using SaveService properties version 2.8 
2015/08/12 19:56:11 INFO  - jmeter.save.SaveService: All converter versions present and correct 
2015/08/12 19:56:11 INFO  - jmeter.save.SaveService: Loading file: config_3_stress_load.jmx 
2015/08/12 19:56:12 INFO  - jmeter.protocol.http.sampler.HTTPSamplerBase: Cannot find .className property for htmlParser, using default 
2015/08/12 19:56:12 INFO  - jmeter.protocol.http.sampler.HTTPSamplerBase: Parser for text/html is  
2015/08/12 19:56:12 INFO  - jmeter.protocol.http.sampler.HTTPSamplerBase: Parser for application/xhtml+xml is  
2015/08/12 19:56:12 INFO  - jmeter.protocol.http.sampler.HTTPSamplerBase: Parser for application/xml is  
2015/08/12 19:56:12 INFO  - jmeter.protocol.http.sampler.HTTPSamplerBase: Parser for text/xml is  
2015/08/12 19:56:12 INFO  - jmeter.protocol.http.sampler.HTTPSamplerBase: Parser for text/vnd.wap.wml is org.apache.jmeter.protocol.http.parser.RegexpHTMLParser 
2015/08/12 19:56:12 INFO  - jmeter.JMeter: Creating summariser <summary> 
2015/08/12 19:56:12 INFO  - jmeter.engine.DistributedRunner: Configuring remote engine: 127.0.0.1:1990 
2015/08/12 19:56:12 INFO  - jmeter.engine.DistributedRunner: Configuring remote engine: 127.0.0.1:1991 
2015/08/12 19:56:12 INFO  - jmeter.engine.DistributedRunner: Starting remote engines 
2015/08/12 19:56:12 INFO  - jmeter.engine.DistributedRunner: Starting the test @ Wed Aug 12 19:56:12 IST 2015 (1439405772149) 
2015/08/12 19:56:12 INFO  - jmeter.engine.ClientJMeterEngine: running clientengine run method 
2015/08/12 19:56:12 INFO  - jmeter.engine.util.CompoundVariable: Note: Function class names must contain the string: '.functions.' 
2015/08/12 19:56:12 INFO  - jmeter.engine.util.CompoundVariable: Note: Function class names must not contain the string: '.gui.' 
2015/08/12 19:56:12 INFO  - jmeter.samplers.SampleEvent: List of sample_variables: [] 
2015/08/12 19:56:12 INFO  - jmeter.samplers.BatchSampleSender: Using batching (client settings) for this run. Thresholds: num=100, time=60000 
2015/08/12 19:56:12 INFO  - jmeter.samplers.DataStrippingSampleSender: Using DataStrippingSampleSender for this run 
2015/08/12 19:56:12 INFO  - jmeter.samplers.BatchSampleSender: Using batching (client settings) for this run. Thresholds: num=100, time=60000 
2015/08/12 19:56:12 INFO  - jmeter.samplers.DataStrippingSampleSender: Using DataStrippingSampleSender for this run 
2015/08/12 19:56:12 INFO  - jmeter.samplers.BatchSampleSender: Using batching (client settings) for this run. Thresholds: num=100, time=60000 
2015/08/12 19:56:12 INFO  - jmeter.samplers.DataStrippingSampleSender: Using DataStrippingSampleSender for this run 
2015/08/12 19:56:12 INFO  - jmeter.samplers.BatchSampleSender: Using batching (client settings) for this run. Thresholds: num=100, time=60000 
2015/08/12 19:56:12 INFO  - jmeter.samplers.DataStrippingSampleSender: Using DataStrippingSampleSender for this run 
2015/08/12 19:56:12 INFO  - jmeter.samplers.BatchSampleSender: Using batching (client settings) for this run. Thresholds: num=100, time=60000 
2015/08/12 19:56:12 INFO  - jmeter.samplers.DataStrippingSampleSender: Using DataStrippingSampleSender for this run 
2015/08/12 19:56:12 INFO  - jmeter.samplers.BatchSampleSender: Using batching (client settings) for this run. Thresholds: num=100, time=60000 
2015/08/12 19:56:12 INFO  - jmeter.samplers.DataStrippingSampleSender: Using DataStrippingSampleSender for this run 
2015/08/12 19:56:12 INFO  - jmeter.engine.ClientJMeterEngine: sent test to 127.0.0.1:1990 basedir='.' 
2015/08/12 19:56:12 INFO  - jmeter.engine.ClientJMeterEngine: Sending properties {} 
2015/08/12 19:56:12 INFO  - jmeter.engine.ClientJMeterEngine: sent run command to 127.0.0.1:1990 
2015/08/12 19:56:12 INFO  - jmeter.engine.ClientJMeterEngine: running clientengine run method 
2015/08/12 19:56:12 INFO  - jmeter.samplers.BatchSampleSender: Using batching (client settings) for this run. Thresholds: num=100, time=60000 
2015/08/12 19:56:12 INFO  - jmeter.samplers.DataStrippingSampleSender: Using DataStrippingSampleSender for this run 
2015/08/12 19:56:12 INFO  - jmeter.reporters.ResultCollector: Folder /Users/jogara/COMP40550/config3/stress_load was created 
2015/08/12 19:56:12 WARN  - kg.apc.jmeter.perfmon.PerfMonCollector: Perfmon file saving setting is not CSV with header line, cannot upload it to Loadosophia.org: /Users/jogara/COMP40550/config3/stress_load/perfmon_cpu.jtl 
2015/08/12 19:56:12 WARN  - kg.apc.jmeter.perfmon.PerfMonCollector: Perfmon file saving setting is not CSV with header line, cannot upload it to Loadosophia.org: /Users/jogara/COMP40550/config3/stress_load/perfmon_network.jtl 
2015/08/12 19:56:12 INFO  - jmeter.samplers.BatchSampleSender: Using batching (client settings) for this run. Thresholds: num=100, time=60000 
2015/08/12 19:56:12 INFO  - jmeter.samplers.DataStrippingSampleSender: Using DataStrippingSampleSender for this run 
2015/08/12 19:56:12 INFO  - jmeter.samplers.BatchSampleSender: Using batching (client settings) for this run. Thresholds: num=100, time=60000 
2015/08/12 19:56:12 INFO  - jmeter.samplers.DataStrippingSampleSender: Using DataStrippingSampleSender for this run 
2015/08/12 19:56:12 INFO  - jmeter.samplers.BatchSampleSender: Using batching (client settings) for this run. Thresholds: num=100, time=60000 
2015/08/12 19:56:12 INFO  - jmeter.samplers.DataStrippingSampleSender: Using DataStrippingSampleSender for this run 
2015/08/12 19:56:12 INFO  - jmeter.samplers.BatchSampleSender: Using batching (client settings) for this run. Thresholds: num=100, time=60000 
2015/08/12 19:56:12 INFO  - jmeter.samplers.DataStrippingSampleSender: Using DataStrippingSampleSender for this run 
2015/08/12 19:56:12 INFO  - jmeter.samplers.BatchSampleSender: Using batching (client settings) for this run. Thresholds: num=100, time=60000 
2015/08/12 19:56:12 INFO  - jmeter.samplers.DataStrippingSampleSender: Using DataStrippingSampleSender for this run 
2015/08/12 19:56:12 INFO  - jmeter.engine.ClientJMeterEngine: sent test to 127.0.0.1:1991 basedir='.' 
2015/08/12 19:56:12 INFO  - jmeter.engine.ClientJMeterEngine: Sending properties {} 
2015/08/12 19:56:12 INFO  - jmeter.engine.ClientJMeterEngine: sent run command to 127.0.0.1:1991 
2015/08/12 19:56:12 INFO  - jmeter.engine.DistributedRunner: Remote engines have been started 
2015/08/12 19:56:12 INFO  - jmeter.JMeter: Started remote host:  127.0.0.1:1991 (1439405772728) 
2015/08/12 19:56:12 INFO  - jmeter.JMeter: Started remote host:  127.0.0.1:1990 (1439405772900) 
2015/08/12 19:56:13 INFO  - jmeter.samplers.SampleResult: Note: Sample TimeStamps are START times 
2015/08/12 19:56:13 INFO  - jmeter.samplers.SampleResult: sampleresult.default.encoding is set to ISO-8859-1 
2015/08/12 19:56:13 INFO  - jmeter.samplers.SampleResult: sampleresult.useNanoTime=true 
2015/08/12 19:56:13 INFO  - jmeter.samplers.SampleResult: sampleresult.nanoThreadSleep=5000 
2015/08/12 19:56:30 INFO  - jmeter.reporters.Summariser: summary +   3903 in  17.3s =  225.8/s Avg:    28 Min:     2 Max:   711 Err:     0 (0.00%) Active: 120 Started: 120 Finished: 0 
2015/08/12 19:57:00 INFO  - jmeter.reporters.Summariser: summary +  11200 in    30s =  372.8/s Avg:    20 Min:     2 Max:   416 Err:     0 (0.00%) Active: 240 Started: 240 Finished: 0 
2015/08/12 19:57:00 INFO  - jmeter.reporters.Summariser: summary =  15103 in  47.3s =  319.1/s Avg:    22 Min:     2 Max:   711 Err:     0 (0.00%) 
2015/08/12 19:57:30 INFO  - jmeter.reporters.Summariser: summary +  16800 in    30s =  560.5/s Avg:    43 Min:     2 Max:  1926 Err:     0 (0.00%) Active: 360 Started: 360 Finished: 0 
2015/08/12 19:57:30 INFO  - jmeter.reporters.Summariser: summary =  31903 in  77.3s =  412.7/s Avg:    33 Min:     2 Max:  1926 Err:     0 (0.00%) 
2015/08/12 19:58:00 INFO  - jmeter.reporters.Summariser: summary +  18000 in  30.1s =  597.1/s Avg:   207 Min:     2 Max:  3312 Err:     0 (0.00%) Active: 416 Started: 416 Finished: 0 
2015/08/12 19:58:00 INFO  - jmeter.reporters.Summariser: summary =  49903 in   107s =  464.4/s Avg:    96 Min:     2 Max:  3312 Err:     0 (0.00%) 
2015/08/12 19:58:30 INFO  - jmeter.reporters.Summariser: summary +  16200 in  30.1s =  538.0/s Avg:   473 Min:     2 Max:  4900 Err:     0 (0.00%) Active: 480 Started: 480 Finished: 0 
2015/08/12 19:58:30 INFO  - jmeter.reporters.Summariser: summary =  66103 in   138s =  480.5/s Avg:   188 Min:     2 Max:  4900 Err:     0 (0.00%) 
2015/08/12 19:59:00 INFO  - jmeter.reporters.Summariser: summary +  14300 in    30s =  479.3/s Avg:   789 Min:     3 Max:  5730 Err:     0 (0.00%) Active: 600 Started: 600 Finished: 0 
2015/08/12 19:59:00 INFO  - jmeter.reporters.Summariser: summary =  80403 in   167s =  480.3/s Avg:   295 Min:     2 Max:  5730 Err:     0 (0.00%) 
2015/08/12 19:59:30 INFO  - jmeter.reporters.Summariser: summary +  14700 in    30s =  492.0/s Avg:   959 Min:     3 Max: 11962 Err:     0 (0.00%) Active: 720 Started: 720 Finished: 0 
2015/08/12 19:59:30 INFO  - jmeter.reporters.Summariser: summary =  95103 in   197s =  482.1/s Avg:   398 Min:     2 Max: 11962 Err:     0 (0.00%) 
2015/08/12 20:00:00 INFO  - jmeter.reporters.Summariser: summary +  12300 in  30.1s =  408.6/s Avg:  1473 Min:     3 Max: 13128 Err:     0 (0.00%) Active: 810 Started: 810 Finished: 0 
2015/08/12 20:00:00 INFO  - jmeter.reporters.Summariser: summary = 107403 in   227s =  472.4/s Avg:   521 Min:     2 Max: 13128 Err:     0 (0.00%) 
2015/08/12 20:00:30 INFO  - jmeter.reporters.Summariser: summary +  15000 in  30.5s =  492.0/s Avg:  1170 Min:     3 Max: 11535 Err:     0 (0.00%) Active: 810 Started: 810 Finished: 0 
2015/08/12 20:00:30 INFO  - jmeter.reporters.Summariser: summary = 122403 in   258s =  474.7/s Avg:   601 Min:     2 Max: 13128 Err:     0 (0.00%) 
2015/08/12 20:01:00 INFO  - jmeter.reporters.Summariser: summary +   8400 in  29.5s =  285.1/s Avg:  2419 Min:     3 Max: 22418 Err:     0 (0.00%) Active: 570 Started: 810 Finished: 240 
2015/08/12 20:01:00 INFO  - jmeter.reporters.Summariser: summary = 130803 in   287s =  455.2/s Avg:   717 Min:     2 Max: 22418 Err:     0 (0.00%) 
2015/08/12 20:01:30 INFO  - jmeter.reporters.Summariser: summary +  15900 in  30.2s =  527.3/s Avg:   430 Min:     2 Max:  7430 Err:     0 (0.00%) Active: 210 Started: 810 Finished: 600 
2015/08/12 20:01:30 INFO  - jmeter.reporters.Summariser: summary = 146703 in   317s =  462.1/s Avg:   686 Min:     2 Max: 22418 Err:     0 (0.00%) 
2015/08/12 20:01:46 INFO  - jmeter.JMeter: Finished remote host: 127.0.0.1:1991 (1439406106950) 
2015/08/12 20:01:47 INFO  - jmeter.reporters.Summariser: summary +   5639 in    17s =  333.6/s Avg:    26 Min:     2 Max:   237 Err:     0 (0.00%) Active: 0 Started: 810 Finished: 810 
2015/08/12 20:01:47 INFO  - jmeter.reporters.Summariser: summary = 152342 in   334s =  455.6/s Avg:   662 Min:     2 Max: 22418 Err:     0 (0.00%) 
2015/08/12 20:01:47 INFO  - jmeter.JMeter: Finished remote host: 127.0.0.1:1990 (1439406107109) 
2015/08/12 20:01:52 INFO  - jmeter.JMeter: Interrupting RMI Reaper 
